module gitlab.com/onrooh/sqlcredo

go 1.18

require (
	github.com/doug-martin/goqu/v9 v9.18.0
	github.com/jmoiron/sqlx v1.3.5
	github.com/mattn/go-sqlite3 v1.14.16
	github.com/onsi/ginkgo/v2 v2.15.0
	github.com/onsi/gomega v1.31.1
	github.com/stretchr/testify v1.8.2
)

require (
	github.com/davecgh/go-spew v1.1.1 // indirect
	github.com/go-logr/logr v1.3.0 // indirect
	github.com/go-task/slim-sprig v0.0.0-20230315185526-52ccab3ef572 // indirect
	github.com/google/go-cmp v0.6.0 // indirect
	github.com/google/pprof v0.0.0-20210407192527-94a9f03dee38 // indirect
	github.com/pmezard/go-difflib v1.0.0 // indirect
	golang.org/x/net v0.19.0 // indirect
	golang.org/x/sys v0.15.0 // indirect
	golang.org/x/text v0.14.0 // indirect
	golang.org/x/tools v0.16.1 // indirect
	gopkg.in/yaml.v3 v3.0.1 // indirect
)
